#size mul mul_trans_clone mul_trans_mutate
64 0.001227 0.001159 0.001110
128 0.014475 0.007590 0.007520
192 0.033035 0.025452 0.024843
256 0.117304 0.059523 0.059263
320 0.151406 0.115868 0.115290
384 0.327308 0.199351 0.198520
448 0.497306 0.316561 0.315325
512 2.066559 0.475092 0.471038
576 1.201250 0.682161 0.678639
640 1.987442 0.950156 0.947010
704 2.516679 1.274600 1.272860
768 4.361214 1.666240 1.664783
832 4.345779 2.115553 2.112460
896 5.952715 2.643382 2.639888
960 6.717000 3.247266 3.242388
1024 25.036742 3.976908 3.981932
1088 9.907269 4.726167 4.717165
1152 12.865068 5.610613 5.605767
1216 14.561700 6.584005 6.575508
1280 36.045562 7.695184 7.688330
1344 20.081217 8.879578 8.872064
1408 25.765770 10.213604 10.200728
1472 26.790202 11.666244 11.647021
1536 92.454291 13.324393 13.350718
1600 34.826364 14.965304 14.956330
1664 48.664574 16.844240 16.822397
1728 44.637225 18.848745 18.822257
1792 127.531528 21.056395 21.050856
1856 56.063238 23.325637 23.303324
1920 87.588633 25.824664 25.810628
1984 69.477830 28.469744 28.457068
2048 220.018025 31.446629 31.514337
2112 85.398429 34.330534 34.316676
