#size mul mul_trans_clone mul_trans_mutate
64 0.001227 0.001170 0.001104
128 0.014149 0.007602 0.007525
192 0.032969 0.025460 0.024851
256 0.116889 0.059509 0.059294
320 0.151589 0.115870 0.115314
384 0.329114 0.199392 0.198557
448 0.493844 0.316195 0.315359
512 2.072139 0.472994 0.472472
576 1.235650 0.682498 0.681337
640 2.004681 0.949360 0.949598
704 2.486033 1.272801 1.269670
768 4.350757 1.667699 1.666082
832 4.309029 2.116369 2.111479
896 5.939899 2.644447 2.641865
960 6.733096 3.248284 3.242691
1024 24.822211 3.975792 3.980001
1088 9.893613 4.724455 4.724804
1152 12.958097 5.609361 5.599359
1216 14.592820 6.582327 6.576384
1280 36.208266 7.695669 7.688728
1344 20.093119 8.881652 8.877100
1408 26.039296 10.223005 10.206921
1472 26.841653 11.658914 11.652476
1536 93.147727 13.325362 13.366557
1600 34.950072 14.969394 14.957803
1664 50.228398 16.838072 16.827563
1728 44.619859 18.827217 18.832841
1792 127.209754 21.070225 21.068156
1856 56.077333 23.316663 23.296468
1920 91.477456 25.824923 25.799748
1984 69.327029 28.484219 28.458655
2048 224.732578 31.432496 31.520947
2112 87.165961 34.346283 34.313080
